trelliscopejs
…
In addition to facet_trelliscope(), this package comes with a more generic trelliscope() method that fits naturally into “tidy” workflows involving dplyr or tidyr.

One of the most common uses for dplyr is grouping data frames and computing summaries for each group. A typical workflow is to compute summaries, visualize them, and then determine the next step of the analysis based on what is seen. Often, however, summaries can mask interesting behavior in the data that is occurring at a deeper level. For example, a summary of mean city mpg per manufacturer and class doesn’t capture the variability of the measurements, the outliers, number of obserations, etc. We can capture these behaviors with additional summaries, but visualizing the detailed data from which the summaries were computed is often very enlightening.

dplyr

Speaking of computing summaries, let’s compute some for the mpg data with dplyr:

mpg %>%
  group_by(manufacturer, class) %>%
  summarise(
    mean_city_mpg = mean(cty),
    mean_hwy_mpg = mean(hwy))

Source: local data frame [32 x 4]
Groups: manufacturer [?]

   manufacturer      class mean_city_mpg mean_hwy_mpg
          <chr>      <chr>         <dbl>        <dbl>
1          audi    compact      17.93333     26.93333
2          audi    midsize      16.00000     24.00000
3     chevrolet    2seater      15.40000     24.80000
4     chevrolet    midsize      18.80000     27.60000
5     chevrolet        suv      12.66667     17.11111
6         dodge    minivan      15.81818     22.36364
7         dodge     pickup      12.05263     16.10526
8         dodge        suv      11.85714     16.00000
9          ford     pickup      13.00000     16.42857
10         ford subcompact      15.88889     23.22222
# ... with 22 more rows
…
d <- mpg %>%
  group_by(manufacturer, class) %>%
  summarise(
    mean_city_mpg = mean(cty),
    mean_hwy_mpg = mean(hwy),
    panel = panel(
      figure(xlab = "City mpg", ylab = "Highway mpg",
        xlim = c(7, 37), ylim = c(9, 47)) %>%
        ly_points(cty, hwy,
          hover = data_frame(model = paste(year, model),
            cty = cty, hwy = hwy))))

d

Source: local data frame [32 x 5]
Groups: manufacturer [?]

   manufacturer      class mean_city_mpg mean_hwy_mpg        panel
          <chr>      <chr>         <dbl>        <dbl>       <list>
1          audi    compact      17.93333     26.93333 <S3: rbokeh>
2          audi    midsize      16.00000     24.00000 <S3: rbokeh>
3     chevrolet    2seater      15.40000     24.80000 <S3: rbokeh>
4     chevrolet    midsize      18.80000     27.60000 <S3: rbokeh>
5     chevrolet        suv      12.66667     17.11111 <S3: rbokeh>
6         dodge    minivan      15.81818     22.36364 <S3: rbokeh>
7         dodge     pickup      12.05263     16.10526 <S3: rbokeh>
8         dodge        suv      11.85714     16.00000 <S3: rbokeh>
9          ford     pickup      13.00000     16.42857 <S3: rbokeh>
10         ford subcompact      15.88889     23.22222 <S3: rbokeh>
# ... with 22 more rows
…
tidyr

Another way to create trelliscope displays in “tidy” workflows is using group_by() with nest():

library(tidyr)

d <- mpg %>%
  group_by(manufacturer, class) %>%
  nest() %>%
  mutate(panel = map_plot(data,
    ~ figure(xlab = "City mpg", ylab = "Highway mpg") %>%
        ly_points(cty, hwy, data = .x)))
d

# A tibble: 32 × 4
   manufacturer   class              data        panel
          <chr>   <chr>            <list>       <list>
1          audi compact <tibble [15 × 9]> <S3: rbokeh>
2          audi midsize  <tibble [3 × 9]> <S3: rbokeh>
3     chevrolet     suv  <tibble [9 × 9]> <S3: rbokeh>
4     chevrolet 2seater  <tibble [5 × 9]> <S3: rbokeh>
5     chevrolet midsize  <tibble [5 × 9]> <S3: rbokeh>
6         dodge minivan <tibble [11 × 9]> <S3: rbokeh>
7         dodge  pickup <tibble [19 × 9]> <S3: rbokeh>
8         dodge     suv  <tibble [7 × 9]> <S3: rbokeh>
9          ford     suv  <tibble [9 × 9]> <S3: rbokeh>
10         ford  pickup  <tibble [7 × 9]> <S3: rbokeh>
# ... with 22 more rows
…
