Introduction to trelliscopejs • trelliscopejs
…
Let’s set up a scenario in which we will produce a plot similar to the Gapminder plot we created using facet_trelliscope(), but using nested data frames and list-columns.

We want to plot life expectancy vs. year by country. So first we will group our data frame by country and continent and thenc call tidyr::nest() to obtain a data frame with one row per country and continent with each unique country’s data stored in a new column of nested data frames, data:

library(tidyverse)
library(gapminder)

by_country <- gapminder %>%
  group_by(country, continent) %>%
  nest()

by_country

# A tibble: 142 x 3
# Groups:   country, continent [710]
   country     continent data             
   <fct>       <fct>     <list>           
 1 Afghanistan Asia      <tibble [12 × 4]>
 2 Albania     Europe    <tibble [12 × 4]>
 3 Algeria     Africa    <tibble [12 × 4]>
 4 Angola      Africa    <tibble [12 × 4]>
 5 Argentina   Americas  <tibble [12 × 4]>
 6 Australia   Oceania   <tibble [12 × 4]>
 7 Austria     Europe    <tibble [12 × 4]>
 8 Bahrain     Asia      <tibble [12 × 4]>
 9 Bangladesh  Asia      <tibble [12 × 4]>
10 Belgium     Europe    <tibble [12 × 4]>
# … with 132 more rows

We can now do all kinds of per-group operations by operating on the rows of this data frame or on elements of the columns of this data frame, and we can even attach these results as new columns of the data frame, allowing us to keep all per-group computations organized by group in a familiar data structure. For example, in “R for Data Science” takes this result and fits a model to each group using purrr::map().

Let’s go ahead and add the model fit as well:

country_model <- function(df)
  lm(lifeExp ~ year, data = df)

by_country <- by_country %>%
  mutate(model = map(data, country_model))

by_country

# A tibble: 142 x 4
# Groups:   country, continent [710]
   country     continent data              model 
   <fct>       <fct>     <list>            <list>
 1 Afghanistan Asia      <tibble [12 × 4]> <lm>  
 2 Albania     Europe    <tibble [12 × 4]> <lm>  
 3 Algeria     Africa    <tibble [12 × 4]> <lm>  
 4 Angola      Africa    <tibble [12 × 4]> <lm>  
 5 Argentina   Americas  <tibble [12 × 4]> <lm>  
 6 Australia   Oceania   <tibble [12 × 4]> <lm>  
 7 Austria     Europe    <tibble [12 × 4]> <lm>  
 8 Bahrain     Asia      <tibble [12 × 4]> <lm>  
 9 Bangladesh  Asia      <tibble [12 × 4]> <lm>  
10 Belgium     Europe    <tibble [12 × 4]> <lm>  
# … with 132 more rows
…
library(rbokeh)
library(trelliscopejs)

country_plot <- function(data, model) {
  figure(xlim = c(1948, 2011), ylim = c(10, 95), tools = NULL) %>%
    ly_points(year, lifeExp, data = data, hover = data) %>%
    ly_abline(model)
}

by_country <- by_country %>%
  mutate(data_plot = map2_plot(data, model, country_plot))

by_country

# A tibble: 142 x 5
# Groups:   country, continent [710]
   country     continent data              model  data_plot 
   <fct>       <fct>     <list>            <list> <trllscp_>
 1 Afghanistan Asia      <tibble [12 × 4]> <lm>   <rbokeh>  
 2 Albania     Europe    <tibble [12 × 4]> <lm>   <rbokeh>  
 3 Algeria     Africa    <tibble [12 × 4]> <lm>   <rbokeh>  
 4 Angola      Africa    <tibble [12 × 4]> <lm>   <rbokeh>  
 5 Argentina   Americas  <tibble [12 × 4]> <lm>   <rbokeh>  
 6 Australia   Oceania   <tibble [12 × 4]> <lm>   <rbokeh>  
 7 Austria     Europe    <tibble [12 × 4]> <lm>   <rbokeh>  
 8 Bahrain     Asia      <tibble [12 × 4]> <lm>   <rbokeh>  
 9 Bangladesh  Asia      <tibble [12 × 4]> <lm>   <rbokeh>  
10 Belgium     Europe    <tibble [12 × 4]> <lm>   <rbokeh>  
# … with 132 more rows
…
